module mew/rice_mill

go 1.16

require (
	github.com/go-sql-driver/mysql v1.6.0
	github.com/gorilla/handlers v1.5.1 // indirect
	github.com/gorilla/mux v1.8.0 // indirect
	github.com/julienschmidt/httprouter v1.3.0
	github.com/rs/cors v1.7.0 // indirect
)
